^C:\USERS\LUKASZ\DOCUMENTS\VISUAL STUDIO 2015\PROJECTS\SNAKETEST\SNAKETEST\SNAKE.CPP
C:\USERS\LUKASZ\DOCUMENTS\VISUAL STUDIO 2015\PROJECTS\SNAKETEST\SNAKETEST\DEBUG\VC140.PDB
C:\USERS\LUKASZ\DOCUMENTS\VISUAL STUDIO 2015\PROJECTS\SNAKETEST\SNAKETEST\DEBUG\VC140.IDB
C:\USERS\LUKASZ\DOCUMENTS\VISUAL STUDIO 2015\PROJECTS\SNAKETEST\SNAKETEST\DEBUG\SNAKE.OBJ
